<svg width="24" height="24" viewBox="0 0 24 24" fill="none" xmlns="http://www.w3.org/2000/svg">
<path d="M12 12C13.1935 12 14.3381 11.5259 15.182 10.682C16.0259 9.83807 16.5 8.69347 16.5 7.5C16.5 6.30653 16.0259 5.16193 15.182 4.31802C14.3381 3.47411 13.1935 3 12 3C10.8065 3 9.66193 3.47411 8.81802 4.31802C7.97411 5.16193 7.5 6.30653 7.5 7.5C7.5 8.69347 7.97411 9.83807 8.81802 10.682C9.66193 11.5259 10.8065 12 12 12V12ZM12 13.5C10.4087 13.5 8.88258 12.8679 7.75736 11.7426C6.63214 10.6174 6 9.0913 6 7.5C6 5.9087 6.63214 4.38258 7.75736 3.25736C8.88258 2.13214 10.4087 1.5 12 1.5C13.5913 1.5 15.1174 2.13214 16.2426 3.25736C17.3679 4.38258 18 5.9087 18 7.5C18 9.0913 17.3679 10.6174 16.2426 11.7426C15.1174 12.8679 13.5913 13.5 12 13.5Z" fill="black"/>
<path d="M12 12C12.1989 12 12.3897 12.079 12.5303 12.2197C12.671 12.3603 12.75 12.5511 12.75 12.75V18.75C12.75 18.9489 12.671 19.1397 12.5303 19.2803C12.3897 19.421 12.1989 19.5 12 19.5C11.8011 19.5 11.6103 19.421 11.4697 19.2803C11.329 19.1397 11.25 18.9489 11.25 18.75V12.75C11.25 12.5511 11.329 12.3603 11.4697 12.2197C11.6103 12.079 11.8011 12 12 12V12Z" fill="black"/>
<path d="M9 15.213V16.7355C6.3225 17.1645 4.5 18.0915 4.5 18.75C4.5 19.6335 7.779 21 12 21C16.221 21 19.5 19.6335 19.5 18.75C19.5 18.09 17.6775 17.1645 15 16.7355V15.213C18.495 15.7275 21 17.118 21 18.75C21 20.82 16.971 22.5 12 22.5C7.029 22.5 3 20.82 3 18.75C3 17.1165 5.505 15.7275 9 15.213Z" fill="black"/>
</svg>
